{
    "currentScenario": {
        "ALMemory": "R2019/Global/stepsList",
        "reduxKey": "currentScenario",
        "scenario": "__SCENARIO"
    },
    "currentStep": {
        "ALMemory": "R2019/Global/currentStep",
        "reduxKey": "currentStep",
        "stepId": "__STEP_ID"
    },
    "resetSteps": {
        "ALMemory":"R2019/Global/resetSteps",
        "reduxKey": "resetSteps"
    },
    "stepSkipped": {
        "ALMemory": "R2019/Global/stepSkipped",
        "reduxKey": "stepSkipped",
        "stepId": "__STEP_ID"
    },
    "stepCompleted": {
        "ALMemory": "R2019/Global/stepDone",
        "reduxKey": "stepCompleted",
        "stepId": "__STEP_ID"
    },
    "stepReceived": {
        "reduxKey": "stepReceived",
        "ALMemory": "R2019/Global/stepReceived"
    },
    "timerState": {
        "ALMemory": "R2019/Global/toggleTimer",
        "reduxKey": "toggleTimer",
        "state": {
            "on": "TOGGLE_TIMER/ON",
            "off": "TOGGLE_TIMER/OFF"
        }
    },
    "currentAction": {
        "ALMemory": "R2019/Global/CurrentAction",
        "actionId": "__Step_ID"
    },
    "askToChangeScenario": {
        "ALMemory": "R2019/Global/AskToChangeScenario",
        "reduxKey": "askToChangeScenario",
        "scenario": "_scenarioName"
    },
    "actionComplete": {
        "ALMemory": "R2019/Global/ActionComplete",
        "reduxKey": "actionComplete"
    }
}